…
simulate_kindist_composite()
#> KINDISPERSE SIMULATION of KIN PAIRS
#> -----------------------------------
#> simtype:      composite 
#> kerneltype:       Gaussian 
#> kinship:      FS 
#> simdims:      100 
#> juvsigma      100 
#> breedsigma        50 
#> gravsigma         50 
#> ovisigma      25 
#> lifestage:        larva 
#> 
#> tab
#> # A tibble: 100 x 8
#>    id1   id2   kinship distance     x1     y1    x2     y2
#>    <chr> <chr> <chr>      <dbl>  <dbl>  <dbl> <dbl>  <dbl>
#>  1 1a    1b    FS          52.2  86.9   66.5   77.3  15.2 
#>  2 2a    2b    FS          59.7 -12.8   21.5   45.6   9.33
#>  3 3a    3b    FS          32.6  10.3   10.1  -21.2  18.5 
#>  4 4a    4b    FS          33.2  47.6   -7.24  39.4  24.9 
#>  5 5a    5b    FS         110.   92.1  -13.8   13.2  62.4 
#>  6 6a    6b    FS          27.7  65.2   -1.39  90.8 -12.0 
#>  7 7a    7b    FS          50.1  -1.44  46.3   48.3  40.8 
#>  8 8a    8b    FS          34.5  37.2   69.0   13.3  93.9 
#>  9 9a    9b    FS          25.1  49.0   83.9   64.4 104.  
#> 10 10a   10b   FS          75.9  85.1   21.0   36.1  79.0 
#> # ... with 90 more rows
…
