kindisperse
…
#> juvsigma      100 
#> breedsigma        50 
#> gravsigma         50 
#> ovisigma      25 
#> lifestage:        larva 
#> 
#> FILTERED
#> --------
#> upper:            1000 
#> lower:            200 
#> spacing:      50 
#> samplenum:        25 
#> 
#> tab
#> # A tibble: 25 x 8
#>    id1    id2    kinship distance     x1      y1     x2     y2
#>    <chr>  <chr>  <chr>      <dbl>  <dbl>   <dbl>  <dbl>  <dbl>
#>  1 182a   182b   H2C          475 -427.  -104.    -42.1  203. 
#>  2 5265a  5265b  H2C          575   62.9 -263.    115.   328. 
#>  3 50580a 50580b H2C          425   52.4   95.2  -167.   438. 
#>  4 28297a 28297b H2C          325  370.   -28.3    25.2   12.9
#>  5 42896a 42896b H2C          425 -119.  -184.    226.    36.9
#>  6 31184a 31184b H2C          525  -79.7   -9.53 -124.   532. 
#>  7 66970a 66970b H2C          275 -214.    33.0    78.3   40.8
#>  8 95562a 95562b H2C          275  189.   168.    -27.4   16.0
#>  9 61239a 61239b H2C          275 -247.  -128.   -256.   169. 
#> 10 9500a  9500b  H2C          525  247.   -42.1  -288.  -164. 
#> # ... with 15 more rows
…
#>   kinship = col_character(),
#>   distance = col_double(),
#>   x1 = col_double(),
#>   y1 = col_double(),
#>   x2 = col_double(),
#>   y2 = col_double(),
#>   lifestage = col_character()
#> )
#> KINDISPERSE RECORD OF KIN PAIRS
#> -------------------------------
#> kinship:      FS 
#> lifestage:        larva 
#> 
#> tab
#> # A tibble: 25 x 9
#>    id1   id2   kinship distance    x1    y1    x2    y2 lifestage
#>    <chr> <chr> <chr>      <dbl> <dbl> <dbl> <dbl> <dbl> <chr>    
#>  1 1a    1b    FS             0 67.8  80.7  67.8  80.7  larva    
#>  2 2a    2b    FS             0 24.9  60.2  24.9  60.2  larva    
#>  3 3a    3b    FS             0  8.16  1.25  8.16  1.25 larva    
#>  4 4a    4b    FS             0 14.9  40.3  14.9  40.3  larva    
#>  5 5a    5b    FS             0 73.1  45.6  73.1  45.6  larva    
#>  6 6a    6b    FS             0 59.4  23.6  59.4  23.6  larva    
#>  7 7a    7b    FS             0  5.54 44.4   5.54 44.4  larva    
#>  8 8a    8b    FS             0 14.5  79.4  14.5  79.4  larva    
#>  9 9a    9b    FS             0 13.2  84.6  13.2  84.6  larva    
#> 10 10a   10b   FS             0 24.0  27.6  24.0  27.6  larva    
#> # ... with 15 more rows
…
# combine cousin distributions & recompose as object. Chaning kinship
# to standard value for unknown as I will be combining the distributions. 
fc <- dplyr::mutate(kinpair_to_tibble(fullcous), kinship = "UN")
hc <- dplyr::mutate(kinpair_to_tibble(halfcous), kinship = "UN")
cc <- tibble::add_row(fc, hc) 
cousins <- df_to_kinpair(cc)
cousins
#> KINDISPERSE RECORD OF KIN PAIRS
#> -------------------------------
#> kinship:      UN 
#> lifestage:        larva 
#> 
#> tab
#> # A tibble: 150 x 9
#>    id1   id2   kinship distance      x1     y1     x2      y2 lifestage
#>    <chr> <chr> <chr>      <dbl>   <dbl>  <dbl>  <dbl>   <dbl> <chr>    
#>  1 1a    1b    UN         163.   153.     73.1  63.1   -62.7  larva    
#>  2 2a    2b    UN         175.   169.    154.   20.9    61.3  larva    
#>  3 3a    3b    UN         181.   113.     49.7 214.   -101.   larva    
#>  4 4a    4b    UN         159.  -132.    -59.7   6.31   17.0  larva    
#>  5 5a    5b    UN          80.4  109.   -104.   70.8  -175.   larva    
#>  6 6a    6b    UN         157.    53.8    94.2 207.    131.   larva    
#>  7 7a    7b    UN          38.6   -9.98  -30.8  16.1    -2.35 larva    
#>  8 8a    8b    UN          67.6  106.    -39.7  38.2   -39.6  larva    
#>  9 9a    9b    UN          78.6 -101.    -80.6 -28.5   -50.0  larva    
#> 10 10a   10b   UN          88.4   -5.99  138.   81.5   151.   larva    
#> # ... with 140 more rows
…
